<?xml version="1.0" encoding="UTF-8" standalone="no"?>
<svg viewBox="0 0 50 50"
 xmlns="http://www.w3.org/2000/svg" xmlns:xlink="http://www.w3.org/1999/xlink"  version="1.2" baseProfile="tiny">
<title>Qt SVG Document</title>
<desc>Generated with Qt</desc>
<defs>
<linearGradient gradientUnits="userSpaceOnUse" x1="4" y1="4" x2="12" y2="12" id="gradient1">
    <stop offset="0" stop-color="#8ec07c" stop-opacity="1" />
    <stop offset="1" stop-color="#689d6a" stop-opacity="1" />
</linearGradient>
</defs>
<g fill="none" stroke="black" stroke-width="1" fill-rule="evenodd" stroke-linecap="square" stroke-linejoin="bevel" >

<g fill="url(#gradient1)" stroke="none" transform="matrix(3.125,0,0,3.125,0,0)"
font-family="Roboto" font-size="10" font-weight="400" font-style="normal" 
opacity="0.732" >
<circle cx="8" cy="8" r="6"/>
</g>

<g fill="none" stroke="none" transform="matrix(3.125,0,0,3.125,0,0)"
font-family="Roboto" font-size="10" font-weight="400" font-style="normal" 
opacity="0" >
<rect x="0" y="0" width="16" height="16"/>
</g>

<g fill="none" stroke="#000000" stroke-opacity="1" stroke-width="1" stroke-linecap="square" stroke-linejoin="bevel" transform="matrix(1,0,0,1,0,0)"
font-family="Roboto" font-size="10" font-weight="400" font-style="normal" 
>
</g>
</g>
</svg>
